{
    "MWHEADER": {
        "SOURCECHANNEL": "XXX-XX-XXX-01",
        "RETURNCODE": "0000",
        "RETURNDESC": "交易成功",
        "TXNSEQ": "000529900866",
        "O360SEQ": "20220309164033pkujmh3ydnsjayux"
    },
    "TRANRS": {
        "SubChannel": "LENDING",
        "ScoringModel": "M001",
        "ScoringResult": { "CathayShield": 846 }
}

